mode: set
D:\learn\3_курс\GO\lab02\lab2\my_ex\math\math.go:3.36,5.13 2 1
D:\learn\3_курс\GO\lab02\lab2\my_ex\math\math.go:8.2,8.13 1 1
D:\learn\3_курс\GO\lab02\lab2\my_ex\math\math.go:11.2,11.13 1 1
D:\learn\3_курс\GO\lab02\lab2\my_ex\math\math.go:14.2,14.12 1 1
D:\learn\3_курс\GO\lab02\lab2\my_ex\math\math.go:5.13,7.3 1 0
D:\learn\3_курс\GO\lab02\lab2\my_ex\math\math.go:8.13,10.3 1 1
D:\learn\3_курс\GO\lab02\lab2\my_ex\math\math.go:11.13,13.3 1 1
D:\learn\3_курс\GO\lab02\lab2\my_ex\math\math.go:17.36,19.13 2 1
D:\learn\3_курс\GO\lab02\lab2\my_ex\math\math.go:22.2,22.13 1 1
D:\learn\3_курс\GO\lab02\lab2\my_ex\math\math.go:25.2,25.13 1 1
D:\learn\3_курс\GO\lab02\lab2\my_ex\math\math.go:28.2,28.12 1 1
D:\learn\3_курс\GO\lab02\lab2\my_ex\math\math.go:19.13,21.3 1 0
D:\learn\3_курс\GO\lab02\lab2\my_ex\math\math.go:22.13,24.3 1 0
D:\learn\3_курс\GO\lab02\lab2\my_ex\math\math.go:25.13,27.3 1 0
D:\learn\3_курс\GO\lab02\lab2\my_ex\math\math.go:31.31,33.2 1 1
D:\learn\3_курс\GO\lab02\lab2\my_ex\math\math.go:35.46,37.2 1 1
